D:\favSling\core\src\main\java\com\aem\sling\core\schedulers\SimpleScheduledTask.java
D:\favSling\core\src\main\java\com\aem\sling\core\filters\LoggingFilter.java
D:\favSling\core\src\main\java\com\aem\sling\core\listeners\SimpleResourceListener.java
D:\favSling\core\src\main\java\com\aem\sling\core\SlingNode.java
D:\favSling\core\src\main\java\com\aem\sling\core\servlets\SimpleServlet.java
D:\favSling\core\src\main\java\com\aem\sling\core\models\HelloWorldModel.java
D:\favSling\core\src\main\java\com\aem\sling\core\MultiSlingComponent.java
D:\favSling\core\src\main\java\com\aem\sling\core\package-info.java
D:\favSling\core\src\main\java\com\aem\sling\core\SlingBean.java
